# Fdb version 3
["bibtex rcmip-phase-1-paper-overview"] 1589266390 "rcmip-phase-1-paper-overview.aux" "rcmip-phase-1-paper-overview.bbl" "rcmip-phase-1-paper-overview" 1589266390
  "./copernicus.bst" 1578638764 39039 195b64fc943aa9550129b5d6dca7d4f1 ""
  "bibliography.bib" 1589257005 61532 9aeda34a8f209e5d030d816899bd953d ""
  "rcmip-phase-1-paper-overview.aux" 1589266390 4528 8dbcfe33499ab93bb8b652dd1a273435 "pdflatex"
  (generated)
  "rcmip-phase-1-paper-overview.blg"
  "rcmip-phase-1-paper-overview.bbl"
["pdflatex"] 1589266390 "rcmip-phase-1-paper-overview.tex" "rcmip-phase-1-paper-overview.pdf" "rcmip-phase-1-paper-overview" 1589266390
  "/usr/local/texlive/2019basic/texmf-dist/fonts/enc/dvips/base/8r.enc" 1165713224 4850 80dc9bab7f31fb78a000ccfed0e27cab ""
  "/usr/local/texlive/2019basic/texmf-dist/fonts/tfm/adobe/helvetic/phvr8r.tfm" 1136768653 4712 9ef4d7d106579d4b136e1529e1a4533c ""
  "/usr/local/texlive/2019basic/texmf-dist/fonts/tfm/adobe/helvetic/phvr8t.tfm" 1136768653 7040 b2bd27e2bfe6f6948cbc3239cae7444f ""
  "/usr/local/texlive/2019basic/texmf-dist/fonts/tfm/adobe/symbol/psyr.tfm" 1136768653 1408 5937f58aa508ea2cea4901c07d10f5fe ""
  "/usr/local/texlive/2019basic/texmf-dist/fonts/tfm/adobe/times/ptmb8r.tfm" 1136768653 4524 6bce29db5bc272ba5f332261583fee9c ""
  "/usr/local/texlive/2019basic/texmf-dist/fonts/tfm/adobe/times/ptmb8t.tfm" 1136768653 6880 f19b8995b61c334d78fc734065f6b4d4 ""
  "/usr/local/texlive/2019basic/texmf-dist/fonts/tfm/adobe/times/ptmr8c.tfm" 1136768653 1352 fa28a7e6d323c65ce7d13d5342ff6be2 ""
  "/usr/local/texlive/2019basic/texmf-dist/fonts/tfm/adobe/times/ptmr8r.tfm" 1136768653 4408 25b74d011a4c66b7f212c0cc3c90061b ""
  "/usr/local/texlive/2019basic/texmf-dist/fonts/tfm/adobe/times/ptmr8t.tfm" 1136768653 6672 e3ab9e37e925f3045c9005e6d1473d56 ""
  "/usr/local/texlive/2019basic/texmf-dist/fonts/tfm/adobe/times/ptmri8r.tfm" 1136768653 4640 532ca3305aad10cc01d769f3f91f1029 ""
  "/usr/local/texlive/2019basic/texmf-dist/fonts/tfm/adobe/times/ptmri8t.tfm" 1136768653 6944 94c55ad86e6ea2826f78ba2240d50df9 ""
  "/usr/local/texlive/2019basic/texmf-dist/fonts/tfm/adobe/zapfding/pzdr.tfm" 1136768653 1528 f853c4d1b4e0550255e02831fdc8496f ""
  "/usr/local/texlive/2019basic/texmf-dist/fonts/tfm/jknappen/ec/ecrm1000.tfm" 1136768653 3584 adb004a0c8e7c46ee66cad73671f37b4 ""
  "/usr/local/texlive/2019basic/texmf-dist/fonts/tfm/public/amsfonts/cmextra/cmex7.tfm" 1246382020 1004 54797486969f23fa377b128694d548df ""
  "/usr/local/texlive/2019basic/texmf-dist/fonts/tfm/public/amsfonts/cmextra/cmex8.tfm" 1246382020 988 bdf658c3bfc2d96d3c8b02cfc1c94c20 ""
  "/usr/local/texlive/2019basic/texmf-dist/fonts/tfm/public/amsfonts/cmextra/cmex9.tfm" 1246382020 996 a18840b13b499c08ac2de96a99eda4bc ""
  "/usr/local/texlive/2019basic/texmf-dist/fonts/tfm/public/amsfonts/symbols/msam10.tfm" 1246382020 916 f87d7c45f9c908e672703b83b72241a3 ""
  "/usr/local/texlive/2019basic/texmf-dist/fonts/tfm/public/amsfonts/symbols/msam5.tfm" 1246382020 924 9904cf1d39e9767e7a3622f2a125a565 ""
  "/usr/local/texlive/2019basic/texmf-dist/fonts/tfm/public/amsfonts/symbols/msam7.tfm" 1246382020 928 2dc8d444221b7a635bb58038579b861a ""
  "/usr/local/texlive/2019basic/texmf-dist/fonts/tfm/public/amsfonts/symbols/msbm10.tfm" 1246382020 908 2921f8a10601f252058503cc6570e581 ""
  "/usr/local/texlive/2019basic/texmf-dist/fonts/tfm/public/amsfonts/symbols/msbm5.tfm" 1246382020 940 75ac932a52f80982a9f8ea75d03a34cf ""
  "/usr/local/texlive/2019basic/texmf-dist/fonts/tfm/public/amsfonts/symbols/msbm7.tfm" 1246382020 940 228d6584342e91276bf566bcf9716b83 ""
  "/usr/local/texlive/2019basic/texmf-dist/fonts/tfm/public/cm/cmex10.tfm" 1136768653 992 662f679a0b3d2d53c1b94050fdaa3f50 ""
  "/usr/local/texlive/2019basic/texmf-dist/fonts/tfm/public/cm/cmmi12.tfm" 1136768653 1524 4414a8315f39513458b80dfc63bff03a ""
  "/usr/local/texlive/2019basic/texmf-dist/fonts/tfm/public/cm/cmmi6.tfm" 1136768653 1512 f21f83efb36853c0b70002322c1ab3ad ""
  "/usr/local/texlive/2019basic/texmf-dist/fonts/tfm/public/cm/cmmi8.tfm" 1136768653 1520 eccf95517727cb11801f4f1aee3a21b4 ""
  "/usr/local/texlive/2019basic/texmf-dist/fonts/tfm/public/cm/cmmi9.tfm" 1136768653 1524 d89e2d087a9828407a196f428428ef4a ""
  "/usr/local/texlive/2019basic/texmf-dist/fonts/tfm/public/cm/cmr12.tfm" 1136768653 1288 655e228510b4c2a1abe905c368440826 ""
  "/usr/local/texlive/2019basic/texmf-dist/fonts/tfm/public/cm/cmr6.tfm" 1136768653 1300 b62933e007d01cfd073f79b963c01526 ""
  "/usr/local/texlive/2019basic/texmf-dist/fonts/tfm/public/cm/cmr8.tfm" 1136768653 1292 21c1c5bfeaebccffdb478fd231a0997d ""
  "/usr/local/texlive/2019basic/texmf-dist/fonts/tfm/public/cm/cmr9.tfm" 1136768653 1292 6b21b9c2c7bebb38aa2273f7ca0fb3af ""
  "/usr/local/texlive/2019basic/texmf-dist/fonts/tfm/public/cm/cmsy10.tfm" 1136768653 1124 6c73e740cf17375f03eec0ee63599741 ""
  "/usr/local/texlive/2019basic/texmf-dist/fonts/tfm/public/cm/cmsy6.tfm" 1136768653 1116 933a60c408fc0a863a92debe84b2d294 ""
  "/usr/local/texlive/2019basic/texmf-dist/fonts/tfm/public/cm/cmsy8.tfm" 1136768653 1120 8b7d695260f3cff42e636090a8002094 ""
  "/usr/local/texlive/2019basic/texmf-dist/fonts/tfm/public/cm/cmsy9.tfm" 1136768653 1116 25a7bf822c58caf309a702ef79f4afbb ""
  "/usr/local/texlive/2019basic/texmf-dist/fonts/tfm/public/latex-fonts/lasy6.tfm" 1136768653 520 4889cce2180234b97cad636b6039c722 ""
  "/usr/local/texlive/2019basic/texmf-dist/fonts/type1/public/amsfonts/cm/cmr10.pfb" 1248133631 35752 024fb6c41858982481f6968b5fc26508 ""
  "/usr/local/texlive/2019basic/texmf-dist/fonts/type1/public/amsfonts/cm/cmr7.pfb" 1248133631 32762 224316ccc9ad3ca0423a14971cfa7fc1 ""
  "/usr/local/texlive/2019basic/texmf-dist/fonts/type1/public/amsfonts/cm/cmsy7.pfb" 1248133631 32716 08e384dc442464e7285e891af9f45947 ""
  "/usr/local/texlive/2019basic/texmf-dist/fonts/type1/urw/helvetic/uhvr8a.pfb" 1136849748 44648 23115b2a545ebfe2c526c3ca99db8b95 ""
  "/usr/local/texlive/2019basic/texmf-dist/fonts/type1/urw/times/utmb8a.pfb" 1136849748 44729 811d6c62865936705a31c797a1d5dada ""
  "/usr/local/texlive/2019basic/texmf-dist/fonts/type1/urw/times/utmr8a.pfb" 1136849748 46026 6dab18b61c907687b520c72847215a68 ""
  "/usr/local/texlive/2019basic/texmf-dist/fonts/type1/urw/times/utmri8a.pfb" 1136849748 45458 a3faba884469519614ca56ba5f6b1de1 ""
  "/usr/local/texlive/2019basic/texmf-dist/fonts/vf/adobe/helvetic/phvr8t.vf" 1136768653 2344 44ff28c9ef2fc97180cd884f900fee71 ""
  "/usr/local/texlive/2019basic/texmf-dist/fonts/vf/adobe/times/ptmb8t.vf" 1136768653 2340 df9c920cc5688ebbf16a93f45ce7bdd3 ""
  "/usr/local/texlive/2019basic/texmf-dist/fonts/vf/adobe/times/ptmr8c.vf" 1136768653 3556 8a9a6dcbcd146ef985683f677f4758a6 ""
  "/usr/local/texlive/2019basic/texmf-dist/fonts/vf/adobe/times/ptmr8t.vf" 1136768653 2348 91706c542228501c410c266421fbe30c ""
  "/usr/local/texlive/2019basic/texmf-dist/fonts/vf/adobe/times/ptmri8t.vf" 1136768653 2328 6cd7df782b09b29cfc4d93e55b6b9a59 ""
  "/usr/local/texlive/2019basic/texmf-dist/tex/context/base/mkii/supp-pdf.mkii" 1461363279 71627 94eb9990bed73c364d7f53f960cc8c5b ""
  "/usr/local/texlive/2019basic/texmf-dist/tex/generic/babel-english/english.ldf" 1496785618 7008 9ff5fdcc865b01beca2b0fe4a46231d4 ""
  "/usr/local/texlive/2019basic/texmf-dist/tex/generic/babel/babel.def" 1554327732 74954 c1d5e73fef972276308f149f1e33bdd6 ""
  "/usr/local/texlive/2019basic/texmf-dist/tex/generic/babel/babel.sty" 1554327732 16684 ae52bcf6432ee858f790e89b0a752277 ""
  "/usr/local/texlive/2019basic/texmf-dist/tex/generic/babel/switch.def" 1554327732 13874 e38d974000bbdedc4c7e8a75b42c2112 ""
  "/usr/local/texlive/2019basic/texmf-dist/tex/generic/babel/txtbabel.def" 1554327732 7435 ef73091c345c1e2e85b0f9a441eb1f7d ""
  "/usr/local/texlive/2019basic/texmf-dist/tex/generic/ifxetex/ifxetex.sty" 1284331290 1458 43ab4710dc82f3edeabecd0d099626b2 ""
  "/usr/local/texlive/2019basic/texmf-dist/tex/generic/oberdiek/gettitlestring.sty" 1463608860 8237 3b62ef1f7e2c23a328c814b3893bc11f ""
  "/usr/local/texlive/2019basic/texmf-dist/tex/generic/oberdiek/hobsub-generic.sty" 1536701967 185392 b99a6d53180e04300c35e18725f31231 ""
  "/usr/local/texlive/2019basic/texmf-dist/tex/generic/oberdiek/hobsub-hyperref.sty" 1465595255 70864 bcd5b216757bd619ae692a151d90085d ""
  "/usr/local/texlive/2019basic/texmf-dist/tex/generic/ulem/ulem.sty" 1338588421 23756 854c01b779030ff5b2aad88ba7a119f2 ""
  "/usr/local/texlive/2019basic/texmf-dist/tex/latex/amscls/amsthm.sty" 1513722769 12604 3dec726c041422879dc3268237f09026 ""
  "/usr/local/texlive/2019basic/texmf-dist/tex/latex/amsfonts/amsfonts.sty" 1359763108 5949 3f3fd50a8cc94c3d4cbf4fc66cd3df1c ""
  "/usr/local/texlive/2019basic/texmf-dist/tex/latex/amsfonts/amssymb.sty" 1359763108 13829 94730e64147574077f8ecfea9bb69af4 ""
  "/usr/local/texlive/2019basic/texmf-dist/tex/latex/amsfonts/umsa.fd" 1359763108 961 6518c6525a34feb5e8250ffa91731cff ""
  "/usr/local/texlive/2019basic/texmf-dist/tex/latex/amsfonts/umsb.fd" 1359763108 961 d02606146ba5601b5645f987c92e6193 ""
  "/usr/local/texlive/2019basic/texmf-dist/tex/latex/amsmath/amsbsy.sty" 1523134290 2211 ca7ce284ab93c8eecdc6029dc5ccbd73 ""
  "/usr/local/texlive/2019basic/texmf-dist/tex/latex/amsmath/amsgen.sty" 1523134290 4161 7f6eb9092061a11f87d08ed13515b48d ""
  "/usr/local/texlive/2019basic/texmf-dist/tex/latex/amsmath/amsmath.sty" 1544567569 85093 77cfa18ddbae4d9b74ade33d843686d3 ""
  "/usr/local/texlive/2019basic/texmf-dist/tex/latex/amsmath/amsopn.sty" 1523134290 4116 32e6abd27229755a83a8b7f18e583890 ""
  "/usr/local/texlive/2019basic/texmf-dist/tex/latex/amsmath/amstext.sty" 1523134290 2432 8ff93b1137020e8f21930562a874ae66 ""
  "/usr/local/texlive/2019basic/texmf-dist/tex/latex/base/article.cls" 1544567569 19933 3097d1b31d3c45dc957096f554529032 ""
  "/usr/local/texlive/2019basic/texmf-dist/tex/latex/base/fixltx2e.sty" 1523050425 15512 801e89e49092057aa6bda4225684f0f9 ""
  "/usr/local/texlive/2019basic/texmf-dist/tex/latex/base/fleqn.clo" 1544567569 4754 ad08e171c7eaaa1b8b818840fc29e98f ""
  "/usr/local/texlive/2019basic/texmf-dist/tex/latex/base/fontenc.sty" 1544567569 4573 e9e01f5b11821a77b916dad378cb86b8 ""
  "/usr/local/texlive/2019basic/texmf-dist/tex/latex/base/ifthen.sty" 1523050425 5161 c004ea5a189d4bdcf42e86754ad75a58 ""
  "/usr/local/texlive/2019basic/texmf-dist/tex/latex/base/inputenc.sty" 1544567569 5052 b64c57f4a38aae0d2745f8298fa50814 ""
  "/usr/local/texlive/2019basic/texmf-dist/tex/latex/base/size10.clo" 1544567569 8294 6d6e23d5169c0d89d173f6c7e08a005a ""
  "/usr/local/texlive/2019basic/texmf-dist/tex/latex/base/t1enc.def" 1544567569 10689 ce0f2353f9a1f42b29f591f3fe8e040a ""
  "/usr/local/texlive/2019basic/texmf-dist/tex/latex/base/textcomp.sty" 1544567569 16156 a293f9cfd4f8552bb5d1028389f53e72 ""
  "/usr/local/texlive/2019basic/texmf-dist/tex/latex/base/ts1cmr.fd" 1523050425 2433 cdefd2509a12ba58001f2024f63aae9a ""
  "/usr/local/texlive/2019basic/texmf-dist/tex/latex/base/ts1enc.def" 1523050425 7769 97b639552068544f7c98d557abb19f41 ""
  "/usr/local/texlive/2019basic/texmf-dist/tex/latex/base/ts1enc.dfu" 1544567569 4973 923be56c54607ca99f7cc085a8c7e52b ""
  "/usr/local/texlive/2019basic/texmf-dist/tex/latex/caption/caption.sty" 1539032178 68576 86bbc6bd5a409b3c353fccc1a815fa5b ""
  "/usr/local/texlive/2019basic/texmf-dist/tex/latex/caption/caption3.sty" 1538606650 68510 943558eecf41da4e76fc614fd7f5deff ""
  "/usr/local/texlive/2019basic/texmf-dist/tex/latex/graphics-cfg/color.cfg" 1459978653 1213 620bba36b25224fa9b7e1ccb4ecb76fd ""
  "/usr/local/texlive/2019basic/texmf-dist/tex/latex/graphics-cfg/graphics.cfg" 1465944070 1224 978390e9c2234eab29404bc21b268d1e ""
  "/usr/local/texlive/2019basic/texmf-dist/tex/latex/graphics-def/pdftex.def" 1515537368 17334 520b9b85ad8a2a48eda3f643e27a5179 ""
  "/usr/local/texlive/2019basic/texmf-dist/tex/latex/graphics/color.sty" 1523134385 7028 112f909feb676788e7ea1c5b0b76320f ""
  "/usr/local/texlive/2019basic/texmf-dist/tex/latex/graphics/graphics.sty" 1523134385 15272 5a97061616e0c8b2aa79c6615ff769f4 ""
  "/usr/local/texlive/2019basic/texmf-dist/tex/latex/graphics/graphicx.sty" 1523134385 9063 d0a305975932762117cd1f06a582f896 ""
  "/usr/local/texlive/2019basic/texmf-dist/tex/latex/graphics/keyval.sty" 1523134385 2591 6404d0c7d28505fb38ce0d86c2e28ae7 ""
  "/usr/local/texlive/2019basic/texmf-dist/tex/latex/graphics/rotating.sty" 1523134385 6966 6f46d3aa8066c4205b8f244817b24ed7 ""
  "/usr/local/texlive/2019basic/texmf-dist/tex/latex/graphics/trig.sty" 1523134385 3977 cb9221976ed8a183afad65b59aa8629a ""
  "/usr/local/texlive/2019basic/texmf-dist/tex/latex/hyperref/hpdftex.def" 1543704539 51744 477aad43ad6a7ba8c462d20c3e0808e0 ""
  "/usr/local/texlive/2019basic/texmf-dist/tex/latex/hyperref/hyperref.sty" 1543704539 236074 d994150943d35d6af0d586a60cc78dd1 ""
  "/usr/local/texlive/2019basic/texmf-dist/tex/latex/hyperref/nameref.sty" 1465687530 12949 81e4e808884a8f0e276b69410e234656 ""
  "/usr/local/texlive/2019basic/texmf-dist/tex/latex/hyperref/pd1enc.def" 1543704539 14098 b4e1ecab4699a0341b8e1349e4c53fb1 ""
  "/usr/local/texlive/2019basic/texmf-dist/tex/latex/latexconfig/epstopdf-sys.cfg" 1279039959 678 4792914a8f45be57bb98413425e4c7af ""
  "/usr/local/texlive/2019basic/texmf-dist/tex/latex/latexconfig/hyperref.cfg" 1254097189 235 6031e5765137be07eed51a510b2b8fb7 ""
  "/usr/local/texlive/2019basic/texmf-dist/tex/latex/lineno/lineno.sty" 1159951381 151738 8cd767481920f0eb785302dacfc87057 ""
  "/usr/local/texlive/2019basic/texmf-dist/tex/latex/multirow/multirow.sty" 1559339157 5486 a1d954b09782ba0acd8a8abfd98e1028 ""
  "/usr/local/texlive/2019basic/texmf-dist/tex/latex/oberdiek/auxhook.sty" 1463608860 3834 4363110eb0ef1eb2b71c8fcbcdb6c357 ""
  "/usr/local/texlive/2019basic/texmf-dist/tex/latex/oberdiek/epstopdf-base.sty" 1463608860 12095 5337833c991d80788a43d3ce26bd1c46 ""
  "/usr/local/texlive/2019basic/texmf-dist/tex/latex/oberdiek/grfext.sty" 1463608860 7075 2fe3d848bba95f139de11ded085e74aa ""
  "/usr/local/texlive/2019basic/texmf-dist/tex/latex/oberdiek/kvoptions.sty" 1463608860 22417 1d9df1eb66848aa31b18a593099cf45c ""
  "/usr/local/texlive/2019basic/texmf-dist/tex/latex/oberdiek/rerunfilecheck.sty" 1463608860 9581 023642318cef9f4677efe364de1e2a27 ""
  "/usr/local/texlive/2019basic/texmf-dist/tex/latex/psnfss/pifont.sty" 1156702453 2284 330328193b4aeb08dd45b0dd3e5ae732 ""
  "/usr/local/texlive/2019basic/texmf-dist/tex/latex/psnfss/t1phv.fd" 1137110629 1488 9a55ac1cde6b4798a7f56844bb75a553 ""
  "/usr/local/texlive/2019basic/texmf-dist/tex/latex/psnfss/t1ptm.fd" 1137110629 774 61d7da1e9f9e74989b196d147e623736 ""
  "/usr/local/texlive/2019basic/texmf-dist/tex/latex/psnfss/times.sty" 1156702453 857 6c716f26c5eadfb81029fcd6ce2d45e6 ""
  "/usr/local/texlive/2019basic/texmf-dist/tex/latex/psnfss/ts1ptm.fd" 1137110629 619 96f56dc5d1ef1fe1121f1cfeec70ee0c ""
  "/usr/local/texlive/2019basic/texmf-dist/tex/latex/psnfss/upsy.fd" 1137110629 148 2da0acd77cba348f34823f44cabf0058 ""
  "/usr/local/texlive/2019basic/texmf-dist/tex/latex/psnfss/upzd.fd" 1137110629 148 b2a94082cb802f90d3daf6dd0c7188a0 ""
  "/usr/local/texlive/2019basic/texmf-dist/tex/latex/tools/array.sty" 1546812253 12527 31ab547f6520657998ecf91709f950ac ""
  "/usr/local/texlive/2019basic/texmf-dist/tex/latex/tools/tabularx.sty" 1523050425 7145 01b7b53bf69f5c0f63803657eb51217f ""
  "/usr/local/texlive/2019basic/texmf-dist/tex/latex/url/url.sty" 1388531844 12796 8edb7d69a20b857904dd0ea757c14ec9 ""
  "/usr/local/texlive/2019basic/texmf-dist/web2c/texmf.cnf" 1553552136 35430 ca24fb44b873d21ac4c63d01600decd4 ""
  "/usr/local/texlive/2019basic/texmf-var/fonts/map/pdftex/updmap/pdftex.map" 1564449609 323200 b2a687e17d89849e70104868788299af ""
  "/usr/local/texlive/2019basic/texmf-var/web2c/pdftex/pdflatex.fmt" 1562391215 2678473 cc25e17bc44c61ceac4bea4d9b7212f0 ""
  "/usr/local/texlive/2019basic/texmf.cnf" 1554925189 628 6cfff46d1fd9ae1d47a88551035aa162 ""
  "abstract.tex" 1578638764 1841 a0787a64f0d6cd5e401a8f104679eb57 ""
  "acknowledgements.tex" 1578638764 927 7657e4ea48391b6b661ec529f3cb255b ""
  "authorship.tex" 1589248275 2228 e72dd2800a8837a04c0a8f34bfcf520d ""
  "codeanddata.tex" 1578638764 2504 dda368b1de45d1d164c84a275ef7442e ""
  "conclusions.tex" 1578638764 2278 c5df89d307fa7727dfca2d70641c461d ""
  "copernicus.cfg" 1578638764 47254 c685e5f7e421ab8ee05a03c467cb2348 ""
  "copernicus.cls" 1578638764 101501 036329d8d10a917514bfe2b93e3974f0 ""
  "introduction-part-2.tex" 1589266386 9965 d2f3d94510369bebbf56367032855070 ""
  "natbib.sty" 1578638764 36896 52c8390773d6d422f163602cfe494377 ""
  "rcmip-phase-1-paper-overview.aux" 1589266390 4528 8dbcfe33499ab93bb8b652dd1a273435 "pdflatex"
  "rcmip-phase-1-paper-overview.bbl" 1589266390 7980 27bc6953e41a0fd8b7c96c9337a4e6ac "bibtex rcmip-phase-1-paper-overview"
  "rcmip-phase-1-paper-overview.tex" 1589264079 7783 e3bfd01ea8149cf421d91492e3900382 ""
  "scientific-objectives.tex" 1589265528 4962 fa87e96ca135eec2fc8ab8a553cd82e0 ""
  (generated)
  "rcmip-phase-1-paper-overview.log"
  "rcmip-phase-1-paper-overview.aux"
  "rcmip-phase-1-paper-overview.pdf"
