# Fdb version 3
["pdflatex"] 1577654896 "abstract.tex" "abstract.pdf" "abstract" 1577654896
  "/usr/local/texlive/2019basic/texmf-dist/web2c/texmf.cnf" 1553552136 35430 ca24fb44b873d21ac4c63d01600decd4 ""
  "/usr/local/texlive/2019basic/texmf-var/web2c/pdftex/pdflatex.fmt" 1562391215 2678473 cc25e17bc44c61ceac4bea4d9b7212f0 ""
  "/usr/local/texlive/2019basic/texmf.cnf" 1554925189 628 6cfff46d1fd9ae1d47a88551035aa162 ""
  "abstract.aux" 1577654842 8 a94a2480d3289e625eea47cd1b285758 ""
  "abstract.tex" 1577654893 1 68b329da9893e34099c7d8ad5cb9c940 ""
  (generated)
  "abstract.pdf"
  "abstract.log"
