# Fdb version 3
["bibtex rcmip-phase-1"] 1591666441 "rcmip-phase-1.aux" "rcmip-phase-1.bbl" "rcmip-phase-1" 1591667398
  "./copernicus.bst" 1578638764 39039 195b64fc943aa9550129b5d6dca7d4f1 ""
  "bibliography.bib" 1591667279 80541 eb115774b5732579942fa40966cfb7ca ""
  "rcmip-phase-1.aux" 1591667398 14015 7b288c56c9364ef1e54059f5ef03b22e "pdflatex"
  (generated)
  "rcmip-phase-1.bbl"
  "rcmip-phase-1.blg"
["pdflatex"] 1591667397 "rcmip-phase-1.tex" "rcmip-phase-1.pdf" "rcmip-phase-1" 1591667398
  "/usr/local/texlive/2020basic/texmf-dist/fonts/enc/dvips/base/8r.enc" 1165713224 4850 80dc9bab7f31fb78a000ccfed0e27cab ""
  "/usr/local/texlive/2020basic/texmf-dist/fonts/tfm/adobe/helvetic/phvr8r.tfm" 1136768653 4712 9ef4d7d106579d4b136e1529e1a4533c ""
  "/usr/local/texlive/2020basic/texmf-dist/fonts/tfm/adobe/helvetic/phvr8t.tfm" 1136768653 7040 b2bd27e2bfe6f6948cbc3239cae7444f ""
  "/usr/local/texlive/2020basic/texmf-dist/fonts/tfm/adobe/symbol/psyr.tfm" 1136768653 1408 5937f58aa508ea2cea4901c07d10f5fe ""
  "/usr/local/texlive/2020basic/texmf-dist/fonts/tfm/adobe/times/ptmb8r.tfm" 1136768653 4524 6bce29db5bc272ba5f332261583fee9c ""
  "/usr/local/texlive/2020basic/texmf-dist/fonts/tfm/adobe/times/ptmb8t.tfm" 1136768653 6880 f19b8995b61c334d78fc734065f6b4d4 ""
  "/usr/local/texlive/2020basic/texmf-dist/fonts/tfm/adobe/times/ptmr8c.tfm" 1136768653 1352 fa28a7e6d323c65ce7d13d5342ff6be2 ""
  "/usr/local/texlive/2020basic/texmf-dist/fonts/tfm/adobe/times/ptmr8r.tfm" 1136768653 4408 25b74d011a4c66b7f212c0cc3c90061b ""
  "/usr/local/texlive/2020basic/texmf-dist/fonts/tfm/adobe/times/ptmr8t.tfm" 1136768653 6672 e3ab9e37e925f3045c9005e6d1473d56 ""
  "/usr/local/texlive/2020basic/texmf-dist/fonts/tfm/adobe/times/ptmri8r.tfm" 1136768653 4640 532ca3305aad10cc01d769f3f91f1029 ""
  "/usr/local/texlive/2020basic/texmf-dist/fonts/tfm/adobe/times/ptmri8t.tfm" 1136768653 6944 94c55ad86e6ea2826f78ba2240d50df9 ""
  "/usr/local/texlive/2020basic/texmf-dist/fonts/tfm/adobe/zapfding/pzdr.tfm" 1136768653 1528 f853c4d1b4e0550255e02831fdc8496f ""
  "/usr/local/texlive/2020basic/texmf-dist/fonts/tfm/jknappen/ec/ecrm1000.tfm" 1136768653 3584 adb004a0c8e7c46ee66cad73671f37b4 ""
  "/usr/local/texlive/2020basic/texmf-dist/fonts/tfm/public/amsfonts/cmextra/cmbsy5.tfm" 1246382020 1120 1e8878807317373affa7f7bba4cf2f6a ""
  "/usr/local/texlive/2020basic/texmf-dist/fonts/tfm/public/amsfonts/cmextra/cmbsy7.tfm" 1246382020 1120 7f9f170e8aa57527ad6c49feafd45d54 ""
  "/usr/local/texlive/2020basic/texmf-dist/fonts/tfm/public/amsfonts/cmextra/cmex7.tfm" 1246382020 1004 54797486969f23fa377b128694d548df ""
  "/usr/local/texlive/2020basic/texmf-dist/fonts/tfm/public/amsfonts/cmextra/cmex8.tfm" 1246382020 988 bdf658c3bfc2d96d3c8b02cfc1c94c20 ""
  "/usr/local/texlive/2020basic/texmf-dist/fonts/tfm/public/amsfonts/cmextra/cmex9.tfm" 1246382020 996 a18840b13b499c08ac2de96a99eda4bc ""
  "/usr/local/texlive/2020basic/texmf-dist/fonts/tfm/public/amsfonts/cmextra/cmmib5.tfm" 1246382020 1496 c79f6914c6d39ffb3759967363d1be79 ""
  "/usr/local/texlive/2020basic/texmf-dist/fonts/tfm/public/amsfonts/cmextra/cmmib7.tfm" 1246382020 1508 6e807ff901c35a5f1fde0ca275533df8 ""
  "/usr/local/texlive/2020basic/texmf-dist/fonts/tfm/public/amsfonts/symbols/msam10.tfm" 1246382020 916 f87d7c45f9c908e672703b83b72241a3 ""
  "/usr/local/texlive/2020basic/texmf-dist/fonts/tfm/public/amsfonts/symbols/msam5.tfm" 1246382020 924 9904cf1d39e9767e7a3622f2a125a565 ""
  "/usr/local/texlive/2020basic/texmf-dist/fonts/tfm/public/amsfonts/symbols/msam7.tfm" 1246382020 928 2dc8d444221b7a635bb58038579b861a ""
  "/usr/local/texlive/2020basic/texmf-dist/fonts/tfm/public/amsfonts/symbols/msbm10.tfm" 1246382020 908 2921f8a10601f252058503cc6570e581 ""
  "/usr/local/texlive/2020basic/texmf-dist/fonts/tfm/public/amsfonts/symbols/msbm5.tfm" 1246382020 940 75ac932a52f80982a9f8ea75d03a34cf ""
  "/usr/local/texlive/2020basic/texmf-dist/fonts/tfm/public/amsfonts/symbols/msbm7.tfm" 1246382020 940 228d6584342e91276bf566bcf9716b83 ""
  "/usr/local/texlive/2020basic/texmf-dist/fonts/tfm/public/cm/cmbsy10.tfm" 1136768653 1116 4e6ba9d7914baa6482fd69f67d126380 ""
  "/usr/local/texlive/2020basic/texmf-dist/fonts/tfm/public/cm/cmbx10.tfm" 1136768653 1328 c834bbb027764024c09d3d2bf908b5f0 ""
  "/usr/local/texlive/2020basic/texmf-dist/fonts/tfm/public/cm/cmbx5.tfm" 1136768653 1332 f817c21a1ba54560425663374f1b651a ""
  "/usr/local/texlive/2020basic/texmf-dist/fonts/tfm/public/cm/cmbx7.tfm" 1136768653 1336 3125ccb448c1a09074e3aa4a9832f130 ""
  "/usr/local/texlive/2020basic/texmf-dist/fonts/tfm/public/cm/cmex10.tfm" 1136768653 992 662f679a0b3d2d53c1b94050fdaa3f50 ""
  "/usr/local/texlive/2020basic/texmf-dist/fonts/tfm/public/cm/cmmi12.tfm" 1136768653 1524 4414a8315f39513458b80dfc63bff03a ""
  "/usr/local/texlive/2020basic/texmf-dist/fonts/tfm/public/cm/cmmi6.tfm" 1136768653 1512 f21f83efb36853c0b70002322c1ab3ad ""
  "/usr/local/texlive/2020basic/texmf-dist/fonts/tfm/public/cm/cmmi8.tfm" 1136768653 1520 eccf95517727cb11801f4f1aee3a21b4 ""
  "/usr/local/texlive/2020basic/texmf-dist/fonts/tfm/public/cm/cmmi9.tfm" 1136768653 1524 d89e2d087a9828407a196f428428ef4a ""
  "/usr/local/texlive/2020basic/texmf-dist/fonts/tfm/public/cm/cmmib10.tfm" 1136768653 1524 554068197b70979a55370e6c6495f441 ""
  "/usr/local/texlive/2020basic/texmf-dist/fonts/tfm/public/cm/cmr12.tfm" 1136768653 1288 655e228510b4c2a1abe905c368440826 ""
  "/usr/local/texlive/2020basic/texmf-dist/fonts/tfm/public/cm/cmr6.tfm" 1136768653 1300 b62933e007d01cfd073f79b963c01526 ""
  "/usr/local/texlive/2020basic/texmf-dist/fonts/tfm/public/cm/cmr8.tfm" 1136768653 1292 21c1c5bfeaebccffdb478fd231a0997d ""
  "/usr/local/texlive/2020basic/texmf-dist/fonts/tfm/public/cm/cmr9.tfm" 1136768653 1292 6b21b9c2c7bebb38aa2273f7ca0fb3af ""
  "/usr/local/texlive/2020basic/texmf-dist/fonts/tfm/public/cm/cmsy10.tfm" 1136768653 1124 6c73e740cf17375f03eec0ee63599741 ""
  "/usr/local/texlive/2020basic/texmf-dist/fonts/tfm/public/cm/cmsy6.tfm" 1136768653 1116 933a60c408fc0a863a92debe84b2d294 ""
  "/usr/local/texlive/2020basic/texmf-dist/fonts/tfm/public/cm/cmsy8.tfm" 1136768653 1120 8b7d695260f3cff42e636090a8002094 ""
  "/usr/local/texlive/2020basic/texmf-dist/fonts/tfm/public/cm/cmsy9.tfm" 1136768653 1116 25a7bf822c58caf309a702ef79f4afbb ""
  "/usr/local/texlive/2020basic/texmf-dist/fonts/tfm/public/latex-fonts/lasy6.tfm" 1136768653 520 4889cce2180234b97cad636b6039c722 ""
  "/usr/local/texlive/2020basic/texmf-dist/fonts/type1/public/amsfonts/cm/cmbx10.pfb" 1248133631 34811 78b52f49e893bcba91bd7581cdc144c0 ""
  "/usr/local/texlive/2020basic/texmf-dist/fonts/type1/public/amsfonts/cm/cmbx7.pfb" 1248133631 32007 e8fa0078355f39467039935974716569 ""
  "/usr/local/texlive/2020basic/texmf-dist/fonts/type1/public/amsfonts/cm/cmmi10.pfb" 1248133631 36299 5f9df58c2139e7edcf37c8fca4bd384d ""
  "/usr/local/texlive/2020basic/texmf-dist/fonts/type1/public/amsfonts/cm/cmr10.pfb" 1248133631 35752 024fb6c41858982481f6968b5fc26508 ""
  "/usr/local/texlive/2020basic/texmf-dist/fonts/type1/public/amsfonts/cm/cmr7.pfb" 1248133631 32762 224316ccc9ad3ca0423a14971cfa7fc1 ""
  "/usr/local/texlive/2020basic/texmf-dist/fonts/type1/public/amsfonts/cm/cmsy10.pfb" 1248133631 32569 5e5ddc8df908dea60932f3c484a54c0d ""
  "/usr/local/texlive/2020basic/texmf-dist/fonts/type1/public/amsfonts/cm/cmsy7.pfb" 1248133631 32716 08e384dc442464e7285e891af9f45947 ""
  "/usr/local/texlive/2020basic/texmf-dist/fonts/type1/urw/helvetic/uhvr8a.pfb" 1136849748 44648 23115b2a545ebfe2c526c3ca99db8b95 ""
  "/usr/local/texlive/2020basic/texmf-dist/fonts/type1/urw/times/utmb8a.pfb" 1136849748 44729 811d6c62865936705a31c797a1d5dada ""
  "/usr/local/texlive/2020basic/texmf-dist/fonts/type1/urw/times/utmr8a.pfb" 1136849748 46026 6dab18b61c907687b520c72847215a68 ""
  "/usr/local/texlive/2020basic/texmf-dist/fonts/type1/urw/times/utmri8a.pfb" 1136849748 45458 a3faba884469519614ca56ba5f6b1de1 ""
  "/usr/local/texlive/2020basic/texmf-dist/fonts/vf/adobe/helvetic/phvr8t.vf" 1136768653 2344 44ff28c9ef2fc97180cd884f900fee71 ""
  "/usr/local/texlive/2020basic/texmf-dist/fonts/vf/adobe/times/ptmb8t.vf" 1136768653 2340 df9c920cc5688ebbf16a93f45ce7bdd3 ""
  "/usr/local/texlive/2020basic/texmf-dist/fonts/vf/adobe/times/ptmr8c.vf" 1136768653 3556 8a9a6dcbcd146ef985683f677f4758a6 ""
  "/usr/local/texlive/2020basic/texmf-dist/fonts/vf/adobe/times/ptmr8t.vf" 1136768653 2348 91706c542228501c410c266421fbe30c ""
  "/usr/local/texlive/2020basic/texmf-dist/fonts/vf/adobe/times/ptmri8t.vf" 1136768653 2328 6cd7df782b09b29cfc4d93e55b6b9a59 ""
  "/usr/local/texlive/2020basic/texmf-dist/tex/context/base/mkii/supp-pdf.mkii" 1461363279 71627 94eb9990bed73c364d7f53f960cc8c5b ""
  "/usr/local/texlive/2020basic/texmf-dist/tex/generic/atbegshi/atbegshi.sty" 1575674566 24708 5584a51a7101caf7e6bbf1fc27d8f7b1 ""
  "/usr/local/texlive/2020basic/texmf-dist/tex/generic/babel-english/english.ldf" 1496785618 7008 9ff5fdcc865b01beca2b0fe4a46231d4 ""
  "/usr/local/texlive/2020basic/texmf-dist/tex/generic/babel/babel.def" 1584910379 91221 9f3e17ba1169b085116fbeae6d53cd6a ""
  "/usr/local/texlive/2020basic/texmf-dist/tex/generic/babel/babel.sty" 1584910379 18898 a389c5d9c1712e0ab1b7c6d94c0fbb10 ""
  "/usr/local/texlive/2020basic/texmf-dist/tex/generic/babel/switch.def" 1584910379 15222 7aefa1398da602e1bc918951352802f0 ""
  "/usr/local/texlive/2020basic/texmf-dist/tex/generic/babel/txtbabel.def" 1580769195 5220 42a6518b499d20676051f269c61f4d9a ""
  "/usr/local/texlive/2020basic/texmf-dist/tex/generic/bigintcalc/bigintcalc.sty" 1576625341 40635 c40361e206be584d448876bba8a64a3b ""
  "/usr/local/texlive/2020basic/texmf-dist/tex/generic/bitset/bitset.sty" 1576016050 33961 6b5c75130e435b2bfdb9f480a09a39f9 ""
  "/usr/local/texlive/2020basic/texmf-dist/tex/generic/etexcmds/etexcmds.sty" 1576625273 7734 b98cbb34c81f667027c1e3ebdbfce34b ""
  "/usr/local/texlive/2020basic/texmf-dist/tex/generic/gettitlestring/gettitlestring.sty" 1576625223 8371 9d55b8bd010bc717624922fb3477d92e ""
  "/usr/local/texlive/2020basic/texmf-dist/tex/generic/iftex/iftex.sty" 1583617216 6501 4011d89d9621e0b0901138815ba5ff29 ""
  "/usr/local/texlive/2020basic/texmf-dist/tex/generic/infwarerr/infwarerr.sty" 1575499628 8356 7bbb2c2373aa810be568c29e333da8ed ""
  "/usr/local/texlive/2020basic/texmf-dist/tex/generic/intcalc/intcalc.sty" 1576625065 31769 002a487f55041f8e805cfbf6385ffd97 ""
  "/usr/local/texlive/2020basic/texmf-dist/tex/generic/kvdefinekeys/kvdefinekeys.sty" 1576878844 5412 d5a2436094cd7be85769db90f29250a6 ""
  "/usr/local/texlive/2020basic/texmf-dist/tex/generic/kvsetkeys/kvsetkeys.sty" 1576624944 13807 952b0226d4efca026f0e19dd266dcc22 ""
  "/usr/local/texlive/2020basic/texmf-dist/tex/generic/ltxcmds/ltxcmds.sty" 1576624883 18552 1e1cc7b75da0dfaacce7cdcb27d306bf ""
  "/usr/local/texlive/2020basic/texmf-dist/tex/generic/pdfescape/pdfescape.sty" 1576015897 19007 15924f7228aca6c6d184b115f4baa231 ""
  "/usr/local/texlive/2020basic/texmf-dist/tex/generic/ulem/ulem.sty" 1578692523 15682 94f55b803e160cf7fb6e4d77d07cfe1d ""
  "/usr/local/texlive/2020basic/texmf-dist/tex/generic/uniquecounter/uniquecounter.sty" 1576624663 7008 f92eaa0a3872ed622bbf538217cd2ab7 ""
  "/usr/local/texlive/2020basic/texmf-dist/tex/latex/accents/accents.sty" 1561671379 7328 0be438db743f506252aa5bfa0a11a780 ""
  "/usr/local/texlive/2020basic/texmf-dist/tex/latex/algorithms/algorithm.sty" 1251330371 3249 15763257e50278eef5db1952ccde229c ""
  "/usr/local/texlive/2020basic/texmf-dist/tex/latex/algorithms/algorithmic.sty" 1251330371 9318 793e9d5a71e74e730d97f6bf5d7e2bca ""
  "/usr/local/texlive/2020basic/texmf-dist/tex/latex/amscls/amsthm.sty" 1513722769 12604 3dec726c041422879dc3268237f09026 ""
  "/usr/local/texlive/2020basic/texmf-dist/tex/latex/amsfonts/amsfonts.sty" 1359763108 5949 3f3fd50a8cc94c3d4cbf4fc66cd3df1c ""
  "/usr/local/texlive/2020basic/texmf-dist/tex/latex/amsfonts/amssymb.sty" 1359763108 13829 94730e64147574077f8ecfea9bb69af4 ""
  "/usr/local/texlive/2020basic/texmf-dist/tex/latex/amsfonts/umsa.fd" 1359763108 961 6518c6525a34feb5e8250ffa91731cff ""
  "/usr/local/texlive/2020basic/texmf-dist/tex/latex/amsfonts/umsb.fd" 1359763108 961 d02606146ba5601b5645f987c92e6193 ""
  "/usr/local/texlive/2020basic/texmf-dist/tex/latex/amsmath/amsbsy.sty" 1523134290 2211 ca7ce284ab93c8eecdc6029dc5ccbd73 ""
  "/usr/local/texlive/2020basic/texmf-dist/tex/latex/amsmath/amsgen.sty" 1523134290 4161 7f6eb9092061a11f87d08ed13515b48d ""
  "/usr/local/texlive/2020basic/texmf-dist/tex/latex/amsmath/amsmath.sty" 1580683321 85660 baee036978c7a91f4e2bba43f05e5945 ""
  "/usr/local/texlive/2020basic/texmf-dist/tex/latex/amsmath/amsopn.sty" 1523134290 4116 32e6abd27229755a83a8b7f18e583890 ""
  "/usr/local/texlive/2020basic/texmf-dist/tex/latex/amsmath/amstext.sty" 1523134290 2432 8ff93b1137020e8f21930562a874ae66 ""
  "/usr/local/texlive/2020basic/texmf-dist/tex/latex/atveryend/atveryend.sty" 1576191570 19336 ce7ae9438967282886b3b036cfad1e4d ""
  "/usr/local/texlive/2020basic/texmf-dist/tex/latex/auxhook/auxhook.sty" 1576625391 3935 57aa3c3e203a5c2effb4d2bd2efbc323 ""
  "/usr/local/texlive/2020basic/texmf-dist/tex/latex/base/article.cls" 1580683321 20023 e427dd9e17e239bf926ef3aab67fe35e ""
  "/usr/local/texlive/2020basic/texmf-dist/tex/latex/base/fixltx2e.sty" 1580683321 15510 974c41577f54096e381824231a9a5a4c ""
  "/usr/local/texlive/2020basic/texmf-dist/tex/latex/base/fleqn.clo" 1580683321 4752 ac0a0eb2cb7ab84995c30c39f1085106 ""
  "/usr/local/texlive/2020basic/texmf-dist/tex/latex/base/fontenc.sty" 1581632200 4947 0c2888dd88121ae675fc6e82213623ba ""
  "/usr/local/texlive/2020basic/texmf-dist/tex/latex/base/ifthen.sty" 1580683321 5159 892429808d9e0e2b3548aaefd9a06ed0 ""
  "/usr/local/texlive/2020basic/texmf-dist/tex/latex/base/inputenc.sty" 1580683321 5050 8933a39ad74377accd18991c5eb90c58 ""
  "/usr/local/texlive/2020basic/texmf-dist/tex/latex/base/size10.clo" 1580683321 8446 9874cccac5fee462272c582807dbbf56 ""
  "/usr/local/texlive/2020basic/texmf-dist/tex/latex/base/textcomp.sty" 1581112666 2821 2c0928feafd5527387e29a1af774d030 ""
  "/usr/local/texlive/2020basic/texmf-dist/tex/latex/cancel/cancel.sty" 1388445839 7592 dd751af313a16a0308545d5bfd7aaaa2 ""
  "/usr/local/texlive/2020basic/texmf-dist/tex/latex/caption/caption.sty" 1578175482 57350 70b0c251b0022f1db12ad7dd4c1aa547 ""
  "/usr/local/texlive/2020basic/texmf-dist/tex/latex/caption/caption3.sty" 1578175482 62012 5e9d40ecd926a6f500919e4c7e1480de ""
  "/usr/local/texlive/2020basic/texmf-dist/tex/latex/epstopdf-pkg/epstopdf-base.sty" 1579991033 13886 d1306dcf79a944f6988e688c1785f9ce ""
  "/usr/local/texlive/2020basic/texmf-dist/tex/latex/float/float.sty" 1137110151 6749 16d2656a1984957e674b149555f1ea1d ""
  "/usr/local/texlive/2020basic/texmf-dist/tex/latex/graphics-cfg/color.cfg" 1459978653 1213 620bba36b25224fa9b7e1ccb4ecb76fd ""
  "/usr/local/texlive/2020basic/texmf-dist/tex/latex/graphics-cfg/graphics.cfg" 1465944070 1224 978390e9c2234eab29404bc21b268d1e ""
  "/usr/local/texlive/2020basic/texmf-dist/tex/latex/graphics-def/pdftex.def" 1585083172 17448 c8e20d5f7e69b0cbecf82ab29daeebd9 ""
  "/usr/local/texlive/2020basic/texmf-dist/tex/latex/graphics/color.sty" 1580683321 7107 12f1c5ba3c6e4a1dde3cb5a3ae4b2cd1 ""
  "/usr/local/texlive/2020basic/texmf-dist/tex/latex/graphics/graphics.sty" 1580683321 16932 04729abe63b66ec59ea56edcd722b058 ""
  "/usr/local/texlive/2020basic/texmf-dist/tex/latex/graphics/graphicx.sty" 1580683321 9067 1b996612394a52e1efe89c8bfe8a5892 ""
  "/usr/local/texlive/2020basic/texmf-dist/tex/latex/graphics/keyval.sty" 1580683321 2590 e3b24ff953e5b58d924f163d25380312 ""
  "/usr/local/texlive/2020basic/texmf-dist/tex/latex/graphics/rotating.sty" 1580683321 6982 df2e03ed1b101065d688af501de0405d ""
  "/usr/local/texlive/2020basic/texmf-dist/tex/latex/graphics/trig.sty" 1580683321 3976 d7fa7d81d2870d509d25b17d0245e735 ""
  "/usr/local/texlive/2020basic/texmf-dist/tex/latex/hycolor/hycolor.sty" 1580250785 17914 4c28a13fc3d975e6e81c9bea1d697276 ""
  "/usr/local/texlive/2020basic/texmf-dist/tex/latex/hyperref/hpdftex.def" 1579642962 50630 3d9728faf8630190cf601ce2cbe470d9 ""
  "/usr/local/texlive/2020basic/texmf-dist/tex/latex/hyperref/hyperref.sty" 1579642962 238752 60dd338d71b6a4ab2192131f73dc908b ""
  "/usr/local/texlive/2020basic/texmf-dist/tex/latex/hyperref/nameref.sty" 1579642962 13244 0070bcab7b5a88187847128d22faf4d8 ""
  "/usr/local/texlive/2020basic/texmf-dist/tex/latex/hyperref/pd1enc.def" 1579642962 14134 32b36577d311ddb6522413c7581ee968 ""
  "/usr/local/texlive/2020basic/texmf-dist/tex/latex/kvoptions/kvoptions.sty" 1575152344 22520 c4c2dab203104295e1e618be7e5c0f5b ""
  "/usr/local/texlive/2020basic/texmf-dist/tex/latex/l3backend/l3backend-pdfmode.def" 1584044900 25398 19ae1e59d7f4a47fefb457d851f6f503 ""
  "/usr/local/texlive/2020basic/texmf-dist/tex/latex/latexconfig/epstopdf-sys.cfg" 1279039959 678 4792914a8f45be57bb98413425e4c7af ""
  "/usr/local/texlive/2020basic/texmf-dist/tex/latex/letltxmacro/letltxmacro.sty" 1575499565 5766 13a9e8766c47f30327caf893ece86ac8 ""
  "/usr/local/texlive/2020basic/texmf-dist/tex/latex/lineno/lineno.sty" 1159951381 151738 8cd767481920f0eb785302dacfc87057 ""
  "/usr/local/texlive/2020basic/texmf-dist/tex/latex/multirow/multirow.sty" 1559339157 5486 a1d954b09782ba0acd8a8abfd98e1028 ""
  "/usr/local/texlive/2020basic/texmf-dist/tex/latex/pdftexcmds/pdftexcmds.sty" 1574631863 19963 36fd8e818f9f0f32e2db8413d4970122 ""
  "/usr/local/texlive/2020basic/texmf-dist/tex/latex/psnfss/pifont.sty" 1156702453 2284 330328193b4aeb08dd45b0dd3e5ae732 ""
  "/usr/local/texlive/2020basic/texmf-dist/tex/latex/psnfss/t1phv.fd" 1137110629 1488 9a55ac1cde6b4798a7f56844bb75a553 ""
  "/usr/local/texlive/2020basic/texmf-dist/tex/latex/psnfss/t1ptm.fd" 1137110629 774 61d7da1e9f9e74989b196d147e623736 ""
  "/usr/local/texlive/2020basic/texmf-dist/tex/latex/psnfss/times.sty" 1156702453 857 6c716f26c5eadfb81029fcd6ce2d45e6 ""
  "/usr/local/texlive/2020basic/texmf-dist/tex/latex/psnfss/ts1ptm.fd" 1137110629 619 96f56dc5d1ef1fe1121f1cfeec70ee0c ""
  "/usr/local/texlive/2020basic/texmf-dist/tex/latex/psnfss/upsy.fd" 1137110629 148 2da0acd77cba348f34823f44cabf0058 ""
  "/usr/local/texlive/2020basic/texmf-dist/tex/latex/psnfss/upzd.fd" 1137110629 148 b2a94082cb802f90d3daf6dd0c7188a0 ""
  "/usr/local/texlive/2020basic/texmf-dist/tex/latex/refcount/refcount.sty" 1576624809 9878 9e94e8fa600d95f9c7731bb21dfb67a4 ""
  "/usr/local/texlive/2020basic/texmf-dist/tex/latex/rerunfilecheck/rerunfilecheck.sty" 1575674187 9715 b051d5b493d9fe5f4bc251462d039e5f ""
  "/usr/local/texlive/2020basic/texmf-dist/tex/latex/subfloat/subfloat.sty" 1137110886 5855 bcc2767388c24c6f9147976bf7f2c794 ""
  "/usr/local/texlive/2020basic/texmf-dist/tex/latex/supertabular/supertabular.sty" 1580769125 15405 31e477e611bb77761a134e5593e8119d ""
  "/usr/local/texlive/2020basic/texmf-dist/tex/latex/tools/array.sty" 1580683321 12560 ce3f59ceae9d9a27bfe037d6bf1d903c ""
  "/usr/local/texlive/2020basic/texmf-dist/tex/latex/tools/tabularx.sty" 1580683321 7148 4ba718200276533b3a293c311a9349e0 ""
  "/usr/local/texlive/2020basic/texmf-dist/tex/latex/url/url.sty" 1388531844 12796 8edb7d69a20b857904dd0ea757c14ec9 ""
  "/usr/local/texlive/2020basic/texmf-dist/web2c/texmf.cnf" 1583102494 39451 60d7debd9ef8ece44cbe965493576c2d ""
  "/usr/local/texlive/2020basic/texmf-var/fonts/map/pdftex/updmap/pdftex.map" 1589358052 4667068 94a95551759c6f97efa2a060b7a8e433 ""
  "/usr/local/texlive/2020basic/texmf-var/web2c/pdftex/pdflatex.fmt" 1589356976 1835990 e1bd78b75dbcae0c2b661168330fd8e8 ""
  "/usr/local/texlive/2020basic/texmf.cnf" 1586277716 628 4346f9a816ba8e5dc36d93d5100b369e ""
  "abstract-phase-1.tex" 1591666422 1577 67388c08ad9a65e58cf1582d83aad5d0 ""
  "acknowledgements.tex" 1578638764 927 7657e4ea48391b6b661ec529f3cb255b ""
  "authorship.tex" 1591667279 2815 7352964351c3f7b4c7167d96d4379437 ""
  "codeanddata.tex" 1578638764 2504 dda368b1de45d1d164c84a275ef7442e ""
  "conclusions-phase-1.tex" 1591245311 1573 90de13d097e8692a65cdee4b77f1add7 ""
  "copernicus.cfg" 1578638764 47254 c685e5f7e421ab8ee05a03c467cb2348 ""
  "copernicus.cls" 1578638764 101501 036329d8d10a917514bfe2b93e3974f0 ""
  "extensions.tex" 1591324461 4255 c47fd37159f38f101f6ecc493a3e3122 ""
  "introduction-phase-1.tex" 1591078559 8403 72c12be507e9bd7aacd86e3d9249e241 ""
  "natbib.sty" 1578638764 36896 52c8390773d6d422f163602cfe494377 ""
  "output-specifications.tex" 1590991627 5377 3874a526aece71471b4bfdc50be0cb91 ""
  "rcmip-phase-1.aux" 1591667398 14015 7b288c56c9364ef1e54059f5ef03b22e "pdflatex"
  "rcmip-phase-1.bbl" 1591666441 22468 5d5b7e537928ab7c24f921a05ba9243d "bibtex rcmip-phase-1"
  "rcmip-phase-1.tex" 1591665759 8180 8602bd316f507c52b383b8115b67ff5d ""
  "sample-results.tex" 1591245234 4727 b40db55d00f3c843ae6868b743bff70a ""
  "scientific-objectives.tex" 1591665779 3345 228d837b7a6bb90c57ebc2adc3849461 ""
  "simulation-design.tex" 1591665953 17524 b794b32c7a0d8398bb2552098973095d ""
  (generated)
  "rcmip-phase-1.pdf"
  "rcmip-phase-1.aux"
  "rcmip-phase-1.log"
