Scenario Identifier,Name of Person,Date of entry,Scenario Status
esm-rcp60-allGHG,Ragnhild Bieltvedt Skeie and Marit Sandstad,2019-12-09 13:08:53.206985,final
esm-rcp26-allGHG,Ragnhild Bieltvedt Skeie and Marit Sandstad,2019-12-09 13:08:54.644095,final
esm-rcp85-allGHG,Ragnhild Bieltvedt Skeie and Marit Sandstad,2019-12-09 13:08:56.089238,final
esm-rcp45-allGHG,Ragnhild Bieltvedt Skeie and Marit Sandstad,2019-12-09 13:08:57.503581,final
esm-ssp119-allGHG,Ragnhild Bieltvedt Skeie and Marit Sandstad,2019-12-09 13:08:58.965661,final
esm-ssp126-allGHG,Ragnhild Bieltvedt Skeie and Marit Sandstad,2019-12-09 13:09:00.390277,final
esm-ssp245-allGHG,Ragnhild Bieltvedt Skeie and Marit Sandstad,2019-12-09 13:09:01.812415,final
esm-ssp370-allGHG,Ragnhild Bieltvedt Skeie and Marit Sandstad,2019-12-09 13:09:03.280339,final
esm-ssp370-lowNTCF-allGHG,Ragnhild Bieltvedt Skeie and Marit Sandstad,2019-12-09 13:09:04.735709,final
esm-ssp434-allGHG,Ragnhild Bieltvedt Skeie and Marit Sandstad,2019-12-09 13:09:06.194744,final
esm-ssp460-allGHG,Ragnhild Bieltvedt Skeie and Marit Sandstad,2019-12-09 13:09:07.641912,final
esm-ssp534-over-allGHG,Ragnhild Bieltvedt Skeie and Marit Sandstad,2019-12-09 13:09:09.093077,final
esm-ssp585-allGHG,Ragnhild Bieltvedt Skeie and Marit Sandstad,2019-12-09 13:09:10.578386,final
esm-historical-allGHG,Ragnhild Bieltvedt Skeie and Marit Sandstad,2019-12-09 13:09:11.110650,final
rcp60,Ragnhild Bieltvedt Skeie and Marit Sandstad,2019-12-09 13:09:11.631593,final
rcp26,Ragnhild Bieltvedt Skeie and Marit Sandstad,2019-12-09 13:09:12.157506,final
rcp85,Ragnhild Bieltvedt Skeie and Marit Sandstad,2019-12-09 13:09:12.687081,final
rcp45,Ragnhild Bieltvedt Skeie and Marit Sandstad,2019-12-09 13:09:13.232657,final
ssp119,Ragnhild Bieltvedt Skeie and Marit Sandstad,2019-12-09 13:09:13.762265,final
ssp126,Ragnhild Bieltvedt Skeie and Marit Sandstad,2019-12-09 13:09:14.308383,final
ssp245,Ragnhild Bieltvedt Skeie and Marit Sandstad,2019-12-09 13:09:14.849739,final
ssp370,Ragnhild Bieltvedt Skeie and Marit Sandstad,2019-12-09 13:09:15.385632,final
ssp370-lowNTCF,Ragnhild Bieltvedt Skeie and Marit Sandstad,2019-12-09 13:09:15.916692,final
ssp434,Ragnhild Bieltvedt Skeie and Marit Sandstad,2019-12-09 13:09:16.454922,final
ssp460,Ragnhild Bieltvedt Skeie and Marit Sandstad,2019-12-09 13:09:16.988677,final
ssp534-over,Ragnhild Bieltvedt Skeie and Marit Sandstad,2019-12-09 13:09:17.533639,final
ssp585,Ragnhild Bieltvedt Skeie and Marit Sandstad,2019-12-09 13:09:18.070100,final
historical,Ragnhild Bieltvedt Skeie and Marit Sandstad,2019-12-09 13:09:18.551588,final
esm-rcp60,Ragnhild Bieltvedt Skeie and Marit Sandstad,2019-12-09 13:09:21.780285,final
esm-rcp26,Ragnhild Bieltvedt Skeie and Marit Sandstad,2019-12-09 13:09:23.215383,final
esm-rcp85,Ragnhild Bieltvedt Skeie and Marit Sandstad,2019-12-09 13:09:24.627189,final
esm-rcp45,Ragnhild Bieltvedt Skeie and Marit Sandstad,2019-12-09 13:09:26.036349,final
esm-ssp119,Ragnhild Bieltvedt Skeie and Marit Sandstad,2019-12-09 13:09:27.449453,final
esm-ssp126,Ragnhild Bieltvedt Skeie and Marit Sandstad,2019-12-09 13:09:28.866395,final
esm-ssp245,Ragnhild Bieltvedt Skeie and Marit Sandstad,2019-12-09 13:09:30.292937,final
esm-ssp370,Ragnhild Bieltvedt Skeie and Marit Sandstad,2019-12-09 13:09:31.727814,final
esm-ssp370-lowNTCF,Ragnhild Bieltvedt Skeie and Marit Sandstad,2019-12-09 13:09:33.162066,final
esm-ssp434,Ragnhild Bieltvedt Skeie and Marit Sandstad,2019-12-09 13:09:34.590470,final
esm-ssp460,Ragnhild Bieltvedt Skeie and Marit Sandstad,2019-12-09 13:09:36.021291,final
esm-ssp534-over,Ragnhild Bieltvedt Skeie and Marit Sandstad,2019-12-09 13:09:37.449585,final
esm-ssp585,Ragnhild Bieltvedt Skeie and Marit Sandstad,2019-12-09 13:09:38.870910,final
esm-historical,Ragnhild Bieltvedt Skeie and Marit Sandstad,2019-12-09 13:09:39.420919,final
1pctCO2,Ragnhild Bieltvedt Skeie and Marit Sandstad,2019-12-09 13:09:39.989664,final
1pctCO2-4xext,Ragnhild Bieltvedt Skeie and Marit Sandstad,2019-12-09 13:09:40.550082,final
abrupt-0p5xCO2,Ragnhild Bieltvedt Skeie and Marit Sandstad,2019-12-09 13:09:41.120931,final
abrupt-2xCO2,Ragnhild Bieltvedt Skeie and Marit Sandstad,2019-12-09 13:09:41.681035,final
abrupt-4xCO2,Ragnhild Bieltvedt Skeie and Marit Sandstad,2019-12-09 13:09:42.226628,final
piControl,Ragnhild Bieltvedt Skeie and Marit Sandstad,2019-12-09 13:09:42.795381,final
