Scenario Identifier,Name of Person,Date of entry,Scenario Status
esm-rcp60-allGHG,Ragnhild Bieltvedt Skeie and Marit Sandstad,2019-12-17 10:29:45.281053,final
esm-rcp26-allGHG,Ragnhild Bieltvedt Skeie and Marit Sandstad,2019-12-17 10:29:46.542186,final
esm-rcp85-allGHG,Ragnhild Bieltvedt Skeie and Marit Sandstad,2019-12-17 10:29:47.786320,final
esm-rcp45-allGHG,Ragnhild Bieltvedt Skeie and Marit Sandstad,2019-12-17 10:29:49.028684,final
esm-ssp119-allGHG,Ragnhild Bieltvedt Skeie and Marit Sandstad,2019-12-17 10:29:50.285047,final
esm-ssp126-allGHG,Ragnhild Bieltvedt Skeie and Marit Sandstad,2019-12-17 10:29:51.545601,final
esm-ssp245-allGHG,Ragnhild Bieltvedt Skeie and Marit Sandstad,2019-12-17 10:29:52.784428,final
esm-ssp370-allGHG,Ragnhild Bieltvedt Skeie and Marit Sandstad,2019-12-17 10:29:54.029626,final
esm-ssp370-lowNTCF-allGHG,Ragnhild Bieltvedt Skeie and Marit Sandstad,2019-12-17 10:29:55.307187,final
esm-ssp434-allGHG,Ragnhild Bieltvedt Skeie and Marit Sandstad,2019-12-17 10:29:56.596841,final
esm-ssp460-allGHG,Ragnhild Bieltvedt Skeie and Marit Sandstad,2019-12-17 10:29:57.853504,final
esm-ssp534-over-allGHG,Ragnhild Bieltvedt Skeie and Marit Sandstad,2019-12-17 10:29:59.092661,final
esm-ssp585-allGHG,Ragnhild Bieltvedt Skeie and Marit Sandstad,2019-12-17 10:30:00.323492,final
esm-hist-allGHG,Ragnhild Bieltvedt Skeie and Marit Sandstad,2019-12-17 10:30:00.562206,final
rcp60,Ragnhild Bieltvedt Skeie and Marit Sandstad,2019-12-17 10:30:00.848261,final
rcp26,Ragnhild Bieltvedt Skeie and Marit Sandstad,2019-12-17 10:30:01.136400,final
rcp85,Ragnhild Bieltvedt Skeie and Marit Sandstad,2019-12-17 10:30:01.425924,final
rcp45,Ragnhild Bieltvedt Skeie and Marit Sandstad,2019-12-17 10:30:01.715668,final
ssp119,Ragnhild Bieltvedt Skeie and Marit Sandstad,2019-12-17 10:30:02.006796,final
ssp126,Ragnhild Bieltvedt Skeie and Marit Sandstad,2019-12-17 10:30:02.294312,final
ssp245,Ragnhild Bieltvedt Skeie and Marit Sandstad,2019-12-17 10:30:02.588541,final
ssp370,Ragnhild Bieltvedt Skeie and Marit Sandstad,2019-12-17 10:30:02.884772,final
ssp370-lowNTCF,Ragnhild Bieltvedt Skeie and Marit Sandstad,2019-12-17 10:30:03.181417,final
ssp434,Ragnhild Bieltvedt Skeie and Marit Sandstad,2019-12-17 10:30:03.478729,final
ssp460,Ragnhild Bieltvedt Skeie and Marit Sandstad,2019-12-17 10:30:03.778438,final
ssp534-over,Ragnhild Bieltvedt Skeie and Marit Sandstad,2019-12-17 10:30:04.076413,final
ssp585,Ragnhild Bieltvedt Skeie and Marit Sandstad,2019-12-17 10:30:04.381556,final
hist,Ragnhild Bieltvedt Skeie and Marit Sandstad,2019-12-17 10:30:04.611522,final
esm-rcp60,Ragnhild Bieltvedt Skeie and Marit Sandstad,2019-12-17 10:30:07.655414,final
esm-rcp26,Ragnhild Bieltvedt Skeie and Marit Sandstad,2019-12-17 10:30:08.915189,final
esm-rcp85,Ragnhild Bieltvedt Skeie and Marit Sandstad,2019-12-17 10:30:10.168466,final
esm-rcp45,Ragnhild Bieltvedt Skeie and Marit Sandstad,2019-12-17 10:30:11.430945,final
esm-ssp119,Ragnhild Bieltvedt Skeie and Marit Sandstad,2019-12-17 10:30:12.682271,final
esm-ssp126,Ragnhild Bieltvedt Skeie and Marit Sandstad,2019-12-17 10:30:13.938230,final
esm-ssp245,Ragnhild Bieltvedt Skeie and Marit Sandstad,2019-12-17 10:30:15.201032,final
esm-ssp370,Ragnhild Bieltvedt Skeie and Marit Sandstad,2019-12-17 10:30:16.463001,final
esm-ssp370-lowNTCF,Ragnhild Bieltvedt Skeie and Marit Sandstad,2019-12-17 10:30:17.715593,final
esm-ssp434,Ragnhild Bieltvedt Skeie and Marit Sandstad,2019-12-17 10:30:18.972295,final
esm-ssp460,Ragnhild Bieltvedt Skeie and Marit Sandstad,2019-12-17 10:30:20.222180,final
esm-ssp534-over,Ragnhild Bieltvedt Skeie and Marit Sandstad,2019-12-17 10:30:21.468654,final
esm-ssp585,Ragnhild Bieltvedt Skeie and Marit Sandstad,2019-12-17 10:30:22.727080,final
esm-hist,Ragnhild Bieltvedt Skeie and Marit Sandstad,2019-12-17 10:30:22.984211,final
1pctCO2,Ragnhild Bieltvedt Skeie and Marit Sandstad,2019-12-17 10:30:23.277568,final
1pctCO2-4xext,Ragnhild Bieltvedt Skeie and Marit Sandstad,2019-12-17 10:30:23.570714,final
abrupt-0p5xCO2,Ragnhild Bieltvedt Skeie and Marit Sandstad,2019-12-17 10:30:23.864637,final
abrupt-2xCO2,Ragnhild Bieltvedt Skeie and Marit Sandstad,2019-12-17 10:30:24.157224,final
abrupt-4xCO2,Ragnhild Bieltvedt Skeie and Marit Sandstad,2019-12-17 10:30:24.453170,final
piControl,Ragnhild Bieltvedt Skeie and Marit Sandstad,2019-12-17 10:30:24.746827,final
