Scenario Identifier,Name of Person,Date of entry,Scenario Status
esm-rcp60-allGHG,Ragnhild Bieltvedt Skeie and Marit Sandstad,2019-12-17 10:29:04.817484,final
esm-rcp26-allGHG,Ragnhild Bieltvedt Skeie and Marit Sandstad,2019-12-17 10:29:06.067785,final
esm-rcp85-allGHG,Ragnhild Bieltvedt Skeie and Marit Sandstad,2019-12-17 10:29:07.296917,final
esm-rcp45-allGHG,Ragnhild Bieltvedt Skeie and Marit Sandstad,2019-12-17 10:29:08.544065,final
esm-ssp119-allGHG,Ragnhild Bieltvedt Skeie and Marit Sandstad,2019-12-17 10:29:09.766866,final
esm-ssp126-allGHG,Ragnhild Bieltvedt Skeie and Marit Sandstad,2019-12-17 10:29:11.000275,final
esm-ssp245-allGHG,Ragnhild Bieltvedt Skeie and Marit Sandstad,2019-12-17 10:29:12.223512,final
esm-ssp370-allGHG,Ragnhild Bieltvedt Skeie and Marit Sandstad,2019-12-17 10:29:13.467277,final
esm-ssp370-lowNTCF-allGHG,Ragnhild Bieltvedt Skeie and Marit Sandstad,2019-12-17 10:29:14.716918,final
esm-ssp434-allGHG,Ragnhild Bieltvedt Skeie and Marit Sandstad,2019-12-17 10:29:15.961775,final
esm-ssp460-allGHG,Ragnhild Bieltvedt Skeie and Marit Sandstad,2019-12-17 10:29:17.238023,final
esm-ssp534-over-allGHG,Ragnhild Bieltvedt Skeie and Marit Sandstad,2019-12-17 10:29:18.485451,final
esm-ssp585-allGHG,Ragnhild Bieltvedt Skeie and Marit Sandstad,2019-12-17 10:29:19.728392,final
esm-hist-allGHG,Ragnhild Bieltvedt Skeie and Marit Sandstad,2019-12-17 10:29:19.974347,final
rcp60,Ragnhild Bieltvedt Skeie and Marit Sandstad,2019-12-17 10:29:20.262420,final
rcp26,Ragnhild Bieltvedt Skeie and Marit Sandstad,2019-12-17 10:29:20.550749,final
rcp85,Ragnhild Bieltvedt Skeie and Marit Sandstad,2019-12-17 10:29:20.840475,final
rcp45,Ragnhild Bieltvedt Skeie and Marit Sandstad,2019-12-17 10:29:21.128873,final
ssp119,Ragnhild Bieltvedt Skeie and Marit Sandstad,2019-12-17 10:29:21.419635,final
ssp126,Ragnhild Bieltvedt Skeie and Marit Sandstad,2019-12-17 10:29:21.711211,final
ssp245,Ragnhild Bieltvedt Skeie and Marit Sandstad,2019-12-17 10:29:22.002546,final
ssp370,Ragnhild Bieltvedt Skeie and Marit Sandstad,2019-12-17 10:29:22.296101,final
ssp370-lowNTCF,Ragnhild Bieltvedt Skeie and Marit Sandstad,2019-12-17 10:29:22.590055,final
ssp434,Ragnhild Bieltvedt Skeie and Marit Sandstad,2019-12-17 10:29:22.884990,final
ssp460,Ragnhild Bieltvedt Skeie and Marit Sandstad,2019-12-17 10:29:23.179128,final
ssp534-over,Ragnhild Bieltvedt Skeie and Marit Sandstad,2019-12-17 10:29:23.477097,final
ssp585,Ragnhild Bieltvedt Skeie and Marit Sandstad,2019-12-17 10:29:23.773709,final
hist,Ragnhild Bieltvedt Skeie and Marit Sandstad,2019-12-17 10:29:23.998399,final
esm-rcp60,Ragnhild Bieltvedt Skeie and Marit Sandstad,2019-12-17 10:29:27.051752,final
esm-rcp26,Ragnhild Bieltvedt Skeie and Marit Sandstad,2019-12-17 10:29:28.323466,final
esm-rcp85,Ragnhild Bieltvedt Skeie and Marit Sandstad,2019-12-17 10:29:29.564650,final
esm-rcp45,Ragnhild Bieltvedt Skeie and Marit Sandstad,2019-12-17 10:29:30.835425,final
esm-ssp119,Ragnhild Bieltvedt Skeie and Marit Sandstad,2019-12-17 10:29:32.078501,final
esm-ssp126,Ragnhild Bieltvedt Skeie and Marit Sandstad,2019-12-17 10:29:33.354005,final
esm-ssp245,Ragnhild Bieltvedt Skeie and Marit Sandstad,2019-12-17 10:29:34.598157,final
esm-ssp370,Ragnhild Bieltvedt Skeie and Marit Sandstad,2019-12-17 10:29:35.841836,final
esm-ssp370-lowNTCF,Ragnhild Bieltvedt Skeie and Marit Sandstad,2019-12-17 10:29:37.081708,final
esm-ssp434,Ragnhild Bieltvedt Skeie and Marit Sandstad,2019-12-17 10:29:38.322164,final
esm-ssp460,Ragnhild Bieltvedt Skeie and Marit Sandstad,2019-12-17 10:29:39.563384,final
esm-ssp534-over,Ragnhild Bieltvedt Skeie and Marit Sandstad,2019-12-17 10:29:40.806103,final
esm-ssp585,Ragnhild Bieltvedt Skeie and Marit Sandstad,2019-12-17 10:29:42.044344,final
esm-hist,Ragnhild Bieltvedt Skeie and Marit Sandstad,2019-12-17 10:29:42.293290,final
1pctCO2,Ragnhild Bieltvedt Skeie and Marit Sandstad,2019-12-17 10:29:42.584485,final
1pctCO2-4xext,Ragnhild Bieltvedt Skeie and Marit Sandstad,2019-12-17 10:29:42.874952,final
abrupt-0p5xCO2,Ragnhild Bieltvedt Skeie and Marit Sandstad,2019-12-17 10:29:43.165851,final
abrupt-2xCO2,Ragnhild Bieltvedt Skeie and Marit Sandstad,2019-12-17 10:29:43.457260,final
abrupt-4xCO2,Ragnhild Bieltvedt Skeie and Marit Sandstad,2019-12-17 10:29:43.749273,final
piControl,Ragnhild Bieltvedt Skeie and Marit Sandstad,2019-12-17 10:29:44.043920,final
