Scenario Identifier,Name of Person,Date of entry,Scenario Status
esm-rcp60-allGHG,Ragnhild Bieltvedt Skeie and Marit Sandstad,2019-12-09 13:09:44.294085,final
esm-rcp26-allGHG,Ragnhild Bieltvedt Skeie and Marit Sandstad,2019-12-09 13:09:45.688866,final
esm-rcp85-allGHG,Ragnhild Bieltvedt Skeie and Marit Sandstad,2019-12-09 13:09:47.088419,final
esm-rcp45-allGHG,Ragnhild Bieltvedt Skeie and Marit Sandstad,2019-12-09 13:09:48.477582,final
esm-ssp119-allGHG,Ragnhild Bieltvedt Skeie and Marit Sandstad,2019-12-09 13:09:49.928267,final
esm-ssp126-allGHG,Ragnhild Bieltvedt Skeie and Marit Sandstad,2019-12-09 13:09:51.340553,final
esm-ssp245-allGHG,Ragnhild Bieltvedt Skeie and Marit Sandstad,2019-12-09 13:09:52.741012,final
esm-ssp370-allGHG,Ragnhild Bieltvedt Skeie and Marit Sandstad,2019-12-09 13:09:54.162774,final
esm-ssp370-lowNTCF-allGHG,Ragnhild Bieltvedt Skeie and Marit Sandstad,2019-12-09 13:09:55.632585,final
esm-ssp434-allGHG,Ragnhild Bieltvedt Skeie and Marit Sandstad,2019-12-09 13:09:57.115266,final
esm-ssp460-allGHG,Ragnhild Bieltvedt Skeie and Marit Sandstad,2019-12-09 13:09:58.529388,final
esm-ssp534-over-allGHG,Ragnhild Bieltvedt Skeie and Marit Sandstad,2019-12-09 13:09:59.938453,final
esm-ssp585-allGHG,Ragnhild Bieltvedt Skeie and Marit Sandstad,2019-12-09 13:10:01.361646,final
esm-historical-allGHG,Ragnhild Bieltvedt Skeie and Marit Sandstad,2019-12-09 13:10:01.839009,final
rcp60,Ragnhild Bieltvedt Skeie and Marit Sandstad,2019-12-09 13:10:02.371635,final
rcp26,Ragnhild Bieltvedt Skeie and Marit Sandstad,2019-12-09 13:10:02.901637,final
rcp85,Ragnhild Bieltvedt Skeie and Marit Sandstad,2019-12-09 13:10:03.428787,final
rcp45,Ragnhild Bieltvedt Skeie and Marit Sandstad,2019-12-09 13:10:03.953598,final
ssp119,Ragnhild Bieltvedt Skeie and Marit Sandstad,2019-12-09 13:10:04.481596,final
ssp126,Ragnhild Bieltvedt Skeie and Marit Sandstad,2019-12-09 13:10:05.013644,final
ssp245,Ragnhild Bieltvedt Skeie and Marit Sandstad,2019-12-09 13:10:05.554310,final
ssp370,Ragnhild Bieltvedt Skeie and Marit Sandstad,2019-12-09 13:10:06.102404,final
ssp370-lowNTCF,Ragnhild Bieltvedt Skeie and Marit Sandstad,2019-12-09 13:10:06.642115,final
ssp434,Ragnhild Bieltvedt Skeie and Marit Sandstad,2019-12-09 13:10:07.182756,final
ssp460,Ragnhild Bieltvedt Skeie and Marit Sandstad,2019-12-09 13:10:07.762855,final
ssp534-over,Ragnhild Bieltvedt Skeie and Marit Sandstad,2019-12-09 13:10:08.310109,final
ssp585,Ragnhild Bieltvedt Skeie and Marit Sandstad,2019-12-09 13:10:08.841635,final
historical,Ragnhild Bieltvedt Skeie and Marit Sandstad,2019-12-09 13:10:09.343833,final
esm-rcp60,Ragnhild Bieltvedt Skeie and Marit Sandstad,2019-12-09 13:10:12.439780,final
esm-rcp26,Ragnhild Bieltvedt Skeie and Marit Sandstad,2019-12-09 13:10:13.910972,final
esm-rcp85,Ragnhild Bieltvedt Skeie and Marit Sandstad,2019-12-09 13:10:15.339396,final
esm-rcp45,Ragnhild Bieltvedt Skeie and Marit Sandstad,2019-12-09 13:10:16.758935,final
esm-ssp119,Ragnhild Bieltvedt Skeie and Marit Sandstad,2019-12-09 13:10:18.187659,final
esm-ssp126,Ragnhild Bieltvedt Skeie and Marit Sandstad,2019-12-09 13:10:19.614824,final
esm-ssp245,Ragnhild Bieltvedt Skeie and Marit Sandstad,2019-12-09 13:10:21.067530,final
esm-ssp370,Ragnhild Bieltvedt Skeie and Marit Sandstad,2019-12-09 13:10:22.496846,final
esm-ssp370-lowNTCF,Ragnhild Bieltvedt Skeie and Marit Sandstad,2019-12-09 13:10:23.929057,final
esm-ssp434,Ragnhild Bieltvedt Skeie and Marit Sandstad,2019-12-09 13:10:25.357518,final
esm-ssp460,Ragnhild Bieltvedt Skeie and Marit Sandstad,2019-12-09 13:10:26.788889,final
esm-ssp534-over,Ragnhild Bieltvedt Skeie and Marit Sandstad,2019-12-09 13:10:28.230328,final
esm-ssp585,Ragnhild Bieltvedt Skeie and Marit Sandstad,2019-12-09 13:10:29.667406,final
esm-historical,Ragnhild Bieltvedt Skeie and Marit Sandstad,2019-12-09 13:10:30.190271,final
1pctCO2,Ragnhild Bieltvedt Skeie and Marit Sandstad,2019-12-09 13:10:30.740017,final
1pctCO2-4xext,Ragnhild Bieltvedt Skeie and Marit Sandstad,2019-12-09 13:10:31.291326,final
abrupt-0p5xCO2,Ragnhild Bieltvedt Skeie and Marit Sandstad,2019-12-09 13:10:31.845641,final
abrupt-2xCO2,Ragnhild Bieltvedt Skeie and Marit Sandstad,2019-12-09 13:10:32.388221,final
abrupt-4xCO2,Ragnhild Bieltvedt Skeie and Marit Sandstad,2019-12-09 13:10:32.952036,final
piControl,Ragnhild Bieltvedt Skeie and Marit Sandstad,2019-12-09 13:10:33.522391,final
